2 ND YEAR/digital electronics/SERIAL-IN-SERIAL-OUT-SHIFTREGISTER-main/simulation/qsim/SISOSR.msim.vcd
$comment
	File created using the following command:
		vcd file SISOSR.msim.vcd -direction
$end
$date
	Thu Jan 25 14:25:15 2024
$end
$version
	ModelSim Version 10.1d
$end
$timescale
	1ps
$end
$scope module SISOSR_vlg_vec_tst $end
$var reg 1 ! clear $end
$var reg 1 " clk $end
$var reg 1 # si $end
$var wire 1 $ so $end
$var wire 1 % sampler $end
$scope module i1 $end
$var wire 1 & gnd $end
$var wire 1 ' vcc $end
$var wire 1 ( unknown $end
$var tri1 1 ) devclrn $end
$var tri1 1 * devpor $end
$var tri1 1 + devoe $end
$var wire 1 , clk~combout $end
$var wire 1 - clk~clkctrl_outclk $end
$var wire 1 . clear~combout $end
$var wire 1 / si~combout $end
$var wire 1 0 tmp[0]~feeder_combout $end
$var wire 1 1 tmp~2_combout $end
$var wire 1 2 tmp~1_combout $end
$var wire 1 3 tmp~0_combout $end
$var wire 1 4 so~reg0feeder_combout $end
$var wire 1 5 so~reg0_regout $end
$var wire 1 6 tmp [3] $end
$var wire 1 7 tmp [2] $end
$var wire 1 8 tmp [1] $end
$var wire 1 9 tmp [0] $end
$upscope $end
$upscope $end
$enddefinitions $end
#0
$dumpvars
1!
0"
0#
0$
x%
0&
1'
x(
1)
1*
1+
0,
0-
1.
0/
00
01
02
03
04
05
09
08
07
06
$end
#10000
1"
1#
1,
1/
1-
0%
10
#20000
0!
0"
0.
0,
0-
1%
#30000
0#
1"
0/
1,
1-
0%
00
19
11
#40000
0"
0,
0-
1%
#50000
1#
1"
1/
1,
1-
0%
10
18
09
12
01
#60000
0"
0,
0-
1%
#70000
0#
1"
0/
1,
1-
0%
00
17
08
19
13
02
11
#80000
0"
0,
0-
1%
#90000
1#
1"
1/
1,
1-
0%
10
16
07
18
09
14
03
12
01
#100000
0"
0,
0-
1%
#110000
0#
1"
0/
1,
1-
0%
00
15
06
17
08
19
04
13
02
11
1$
#120000
0"
0,
0-
1%
#130000
1#
1"
1/
1,
1-
0%
10
05
16
07
18
09
14
03
12
01
0$
#140000
0"
0,
0-
1%
#150000
0#
1"
0/
1,
1-
0%
00
15
06
17
08
19
04
13
02
11
1$
#160000
0"
0,
0-
1%
#170000
1"
1,
1-
0%
05
16
07
18
09
14
03
12
01
0$
#180000
0"
0,
0-
1%
#190000
1"
1,
1-
0%
15
06
17
08
04
13
02
1$
